Enter Number of Cluster: 3
Enter Number of Elements: 10
Enter x & y:
0: 10 0
1: 5 0
2: 20 0
3: 100 0
4: 123 0
5: 435 0
6: 500 0
7: 30 0
8: 102 0
9: 40 0
------ Pass 1 -------
Cluster 0
0: (10.0,0.0)
	Centroid: (10.0,0.0)
Cluster 1
1: (5.0,0.0)
	Centroid: (5.0,0.0)
Cluster 2
2: (20.0,0.0)
3: (100.0,0.0)
4: (123.0,0.0)
5: (435.0,0.0)
6: (500.0,0.0)
7: (30.0,0.0)
8: (102.0,0.0)
9: (40.0,0.0)
	Centroid: (168.75,0.0)
------ Pass 2 -------
Cluster 0
0: (10.0,0.0)
2: (20.0,0.0)
7: (30.0,0.0)
9: (40.0,0.0)
	Centroid: (25.0,0.0)
Cluster 1
1: (5.0,0.0)
	Centroid: (5.0,0.0)
Cluster 2
3: (100.0,0.0)
4: (123.0,0.0)
5: (435.0,0.0)
6: (500.0,0.0)
8: (102.0,0.0)
	Centroid: (252.0,0.0)
------ Pass 3 -------
Cluster 0
2: (20.0,0.0)
3: (100.0,0.0)
4: (123.0,0.0)
7: (30.0,0.0)
8: (102.0,0.0)
9: (40.0,0.0)
	Centroid: (69.16666666666667,0.0)
Cluster 1
0: (10.0,0.0)
1: (5.0,0.0)
	Centroid: (7.5,0.0)
Cluster 2
5: (435.0,0.0)
6: (500.0,0.0)
	Centroid: (467.5,0.0)
------ Pass 4 -------
Cluster 0
3: (100.0,0.0)
4: (123.0,0.0)
8: (102.0,0.0)
9: (40.0,0.0)
	Centroid: (91.25,0.0)
Cluster 1
0: (10.0,0.0)
1: (5.0,0.0)
2: (20.0,0.0)
7: (30.0,0.0)
	Centroid: (16.25,0.0)
Cluster 2
5: (435.0,0.0)
6: (500.0,0.0)
	Centroid: (467.5,0.0)
------ Pass 5 -------
Cluster 0
3: (100.0,0.0)
4: (123.0,0.0)
8: (102.0,0.0)
	Centroid: (108.33333333333333,0.0)
Cluster 1
0: (10.0,0.0)
1: (5.0,0.0)
2: (20.0,0.0)
7: (30.0,0.0)
9: (40.0,0.0)
	Centroid: (21.0,0.0)
Cluster 2
5: (435.0,0.0)
6: (500.0,0.0)
	Centroid: (467.5,0.0)
------ Pass 6 -------
Cluster 0
3: (100.0,0.0)
4: (123.0,0.0)
8: (102.0,0.0)
	Centroid: (108.33333333333333,0.0)
Cluster 1
0: (10.0,0.0)
1: (5.0,0.0)
2: (20.0,0.0)
7: (30.0,0.0)
9: (40.0,0.0)
	Centroid: (21.0,0.0)
Cluster 2
5: (435.0,0.0)
6: (500.0,0.0)
	Centroid: (467.5,0.0)